/* XPM */
static char *cpu_intel_28x28[] = {
/* columns rows colors chars-per-pixel */
"22 22 197 2 ",
"   c #3A3A3A",
".  c #3A3B3A",
"X  c #3A3C3B",
"o  c #3B3C3C",
"O  c #2B523E",
"+  c #2B533F",
"@  c #365344",
"#  c #385345",
"$  c #404341",
"%  c #424342",
"&  c #464947",
"*  c #484848",
"=  c #5A5A5A",
"-  c #5C5C5B",
";  c #696968",
":  c #737372",
">  c #767675",
",  c #787877",
"<  c #7D7D7C",
"1  c #7E7D7D",
"2  c #7F7F7E",
"3  c #80807E",
"4  c #828281",
"5  c #858583",
"6  c #888886",
"7  c #8A8A88",
"8  c #8B8B8A",
"9  c #8C8C8B",
"0  c #8D8D8C",
"q  c #8E8E8D",
"w  c #919190",
"e  c #929291",
"r  c #939392",
"t  c #949492",
"y  c #969695",
"u  c #979795",
"i  c #979796",
"p  c #999997",
"a  c #999998",
"s  c #9A9A99",
"d  c #9B9B9A",
"f  c #9D9D9B",
"g  c #9D9D9C",
"h  c #9E9E9C",
"j  c #9E9E9D",
"k  c #9F9F9E",
"l  c #A0A09E",
"z  c #A1A09F",
"x  c #A1A1A0",
"c  c #A2A2A1",
"v  c #A3A3A1",
"b  c #A4A4A3",
"n  c #A5A5A3",
"m  c #A5A5A4",
"M  c #A6A6A4",
"N  c #A6A6A5",
"B  c #A7A7A5",
"V  c #A7A7A6",
"C  c #A8A8A6",
"Z  c #A8A8A7",
"A  c #A9A9A7",
"S  c #AAAAA8",
"D  c #ABABAA",
"F  c #ACACAB",
"G  c #ADADAB",
"H  c #ADADAC",
"J  c #AEAEAC",
"K  c #AEAEAD",
"L  c #B0B0AE",
"P  c #B0B0AF",
"I  c #B1B1AF",
"U  c #B1B1B0",
"Y  c #B2B2B0",
"T  c #B3B3B1",
"R  c #B3B3B2",
"E  c #B3B5B2",
"W  c #B4B4B2",
"Q  c #B4B4B3",
"!  c #B5B5B3",
"~  c #B6B6B4",
"^  c #B6B6B5",
"/  c #B7B7B5",
"(  c #B7B7B6",
")  c #B8B8B6",
"_  c #B8B8B7",
"`  c #BABAB8",
"'  c #BABAB9",
"]  c #BBBBB9",
"[  c #BBBBBA",
"{  c #BCBCBA",
"}  c #BCBCBB",
"|  c #BDBDBC",
" . c #BEBEBC",
".. c #BEBFBC",
"X. c #BEBEBD",
"o. c #BFBFBD",
"O. c #BFBFBE",
"+. c #C0C0BE",
"@. c #C0C0BF",
"#. c #C0C1BF",
"$. c #C1C1BF",
"%. c #C1C1C0",
"&. c #C2C2C0",
"*. c #C2C2C1",
"=. c #C3C3C1",
"-. c #C4C4C2",
";. c #C4C4C3",
":. c #C5C5C3",
">. c #C6C6C3",
",. c #C5C5C4",
"<. c #C6C6C4",
"1. c #C6C6C5",
"2. c #C7C7C5",
"3. c #C7C7C6",
"4. c #C8C8C6",
"5. c #C9C9C7",
"6. c #CACAC7",
"7. c #C8C8C8",
"8. c #C9C9C8",
"9. c #CACAC8",
"0. c #CACAC9",
"q. c #CBCBC9",
"w. c #CACACA",
"e. c #CBCBCA",
"r. c #CCCCCA",
"t. c #CCCCCB",
"y. c #CDCDCB",
"u. c #CCCECB",
"i. c #CECECB",
"p. c #CDCDCC",
"a. c #CECECC",
"s. c #CFCFCD",
"d. c #D0D0CE",
"f. c #D1D1CE",
"g. c #D0D0CF",
"h. c #D1D1CF",
"j. c #D1D1D0",
"k. c #D2D2D0",
"l. c #D3D3D0",
"z. c #D3D3D1",
"x. c #D3D3D2",
"c. c #D4D4D1",
"v. c #D4D4D2",
"b. c #D5D4D2",
"n. c #D5D5D2",
"m. c #D5D5D3",
"M. c #D6D6D3",
"N. c #D6D6D4",
"B. c #D7D7D4",
"V. c #D7D7D5",
"C. c #D8D8D5",
"Z. c #D8D8D6",
"A. c #D9D9D6",
"S. c #D9D9D7",
"D. c #DADAD7",
"F. c #D9D9D8",
"G. c #DADAD8",
"H. c #DBDBD8",
"J. c #DBDBD9",
"K. c #DCDCD9",
"L. c #DCDCDA",
"P. c #DDDDDB",
"I. c #DEDEDB",
"U. c #DEDEDC",
"Y. c #DFDFDC",
"T. c #DFDFDD",
"R. c #E0E0DD",
"E. c #E0E0DE",
"W. c #E1E1DE",
"Q. c #E0E0DF",
"!. c #E1E1DF",
"~. c #E2E2DF",
"^. c #E2E2E0",
"/. c #E3E3E0",
"(. c #E2E2E1",
"). c #E3E3E1",
"_. c #E4E4E1",
"`. c #E5E5E1",
"'. c #E4E4E2",
"]. c #E5E5E2",
"[. c #E5E5E3",
"{. c #E6E6E3",
"}. c #E5E5E4",
"|. c #E6E6E4",
" X c #E7E7E4",
".X c #E7E7E5",
"XX c #E8E8E5",
"oX c #E8E8E6",
"OX c #E9E9E6",
"+X c #E9E9E7",
"@X c #EAEAE8",
"#X c #EBEBE9",
"$X c #ECECEA",
"%X c #EDEDEA",
"&X c #EDEDEB",
"*X c #EDEDEC",
"=X c #EEEEEC",
/* pixels */
"O o 2 R X.o.@.&.=.;.1.3.7.8.0.w.e.0.( < X + ",
". z [.N.r.i.f.n.Z.G.U.!.'.}..X+X@X$X&X/.i   ",
"> C.} D P ^ { %.<.0.s.l.N.A.K.I.T.W./._.c.: ",
"i $.F P ( | =.4.t.h.m.Z.J.I.R.W./._._._.Z.k ",
"u ( P ( | -.5.p.l.B.G.I.E./._.`.].].].].A.Z ",
"p ] ^ | -.5.a.c.A.K.G.N.l.d.c.H._.XX{.].S.V ",
"g +.} =.5.a.v.v.5. .[ X.=.=.$.` / 5./.].C.C ",
"x :.&.4.a.n.9.[ ,.B.~. XOX@X@XoXK.' ] W.N.B ",
"m 9.2.y.s.X.y.P.].{.L.|.#X$X#Xp.N._.E u.b.m ",
"A p.e.<.` _ s.a.s.T.{ g.(.x.^.*.y.XX..#.k.c ",
"F k.i.L 9.I $.H ! %.*.,.` Q ) O.y._.Y -.s.l ",
"L B.>.P D.R =.{ x.+.@.x.R ( { _ 6.=.N j.9.g ",
"T G.$.U U.! &._ j.X.+.| ` K  .&.` m 4.m.>.s ",
"~ L.5.z K.K.K.H.).U.).F.Q.s.S.K.t.z.N.s.+.y ",
") I.D.b n D.OX$X&X=X*X%XoXL.$.d A V.f.9.' w ",
"` Q.Y.B.l 8 l T  .o.) S a 8 9 c ;.k.q.:.! 0 ",
"} ^.T._.W.5.D s t e u j J @.d.M.l.q.:.X.K 6 ",
"| _.W._.].XXoX{./.W.E.W.T.L.V.j.e.:.X.( V 4 ",
"I W.~._.].{.{.{.`./.E.P.S.m.f.q.:.o.( L g , ",
"1 h.Y.`.].].`./.~.Y.L.A.n.s.0.;. .( L v q - ",
"* e q.n.B.B.N.n.h.s.r.4.-.o.` W G N f q ; % ",
"@ & , l N B M b c l h a u r q 7 5 3 > = $ # "
};
